<?xml version="1.0" encoding="UTF-8"?>
<svg width="20px" height="20px" viewBox="0 0 20 20" version="1.1" xmlns="http://www.w3.org/2000/svg" xmlns:xlink="http://www.w3.org/1999/xlink">
    <!-- Generator: Sketch 63.1 (92452) - https://sketch.com -->
    <title>/svg/btn_template_pause</title>
    <desc>Created with Sketch.</desc>
    <g id="btn_template_pause" stroke="none" stroke-width="1" fill="none" fill-rule="evenodd">
        <g id="pause_circle_outline-24px">
            <polygon id="Path" points="0 0 20 0 20 20 0 20"></polygon>
            <path d="M7.5,13.3333333 L9.16666667,13.3333333 L9.16666667,6.66666667 L7.5,6.66666667 L7.5,13.3333333 Z M10,1.66666667 C5.4,1.66666667 1.66666667,5.4 1.66666667,10 C1.66666667,14.6 5.4,18.3333333 10,18.3333333 C14.6,18.3333333 18.3333333,14.6 18.3333333,10 C18.3333333,5.4 14.6,1.66666667 10,1.66666667 Z M10,16.6666667 C6.325,16.6666667 3.33333333,13.675 3.33333333,10 C3.33333333,6.325 6.325,3.33333333 10,3.33333333 C13.675,3.33333333 16.6666667,6.325 16.6666667,10 C16.6666667,13.675 13.675,16.6666667 10,16.6666667 Z M10.8333333,13.3333333 L12.5,13.3333333 L12.5,6.66666667 L10.8333333,6.66666667 L10.8333333,13.3333333 Z" id="Shape" stroke="#FFFFFF" fill="#FFA035" fill-rule="nonzero"></path>
            <rect id="Rectangle" stroke="#FFA035" stroke-width="0.5" fill="#FFA035" x="8" y="7" width="1" height="6"></rect>
            <rect id="Rectangle-Copy" stroke="#FFA035" stroke-width="0.5" fill="#FFA035" x="11" y="7" width="1" height="6"></rect>
        </g>
    </g>
</svg>